{
	"credit": "Made with Blockbench",
	"parent": "block/block",
	"textures": {
		"top": "conveyorbelts:block/iron_conveyor_belt_top_off",
		"side": "conveyorbelts:block/iron_conveyor_belt_side_off",
		"bottom": "conveyorbelts:block/iron_conveyor_belt_bottom",
		"particle": "conveyorbelts:block/iron_conveyor_belt_top_off"
	},
	"elements": [
		{
			"name": "bottom",
			"from": [0, 0, 0],
			"to": [16, 1, 16],
			"faces": {
				"north": {"uv": [15, 0, 16, 16], "rotation": 90, "texture": "#side"},
				"east": {"uv": [0, 0, 1, 16], "rotation": 270, "texture": "#side"},
				"south": {"uv": [15, 0, 16, 16], "rotation": 90, "texture": "#side"},
				"west": {"uv": [0, 0, 1, 16], "rotation": 90, "texture": "#side"},
				"down": {"uv": [0, 0, 16, 16], "texture": "#bottom"}
			}
		},
		{
			"name": "top",
			"from": [0, 1, 0],
			"to": [16, 6, 16],
			"faces": {
				"north": {"uv": [10, 0, 15, 16], "rotation": 90, "texture": "#side"},
				"east": {"uv": [0, 0, 5, 16], "rotation": 90, "texture": "#top"},
				"south": {"uv": [10, 0, 15, 16], "rotation": 90, "texture": "#side"},
				"west": {"uv": [11, 0, 16, 16], "rotation": 270, "texture": "#top"},
				"up": {"uv": [0, 0, 16, 16], "texture": "#top"}
			}
		}
	],
	"groups": [
		{
			"name": "group",
			"origin": [0, 0, 0],
			"color": 0,
			"children": [0, 1]
		}
	]
}
