{
  "required": true,
  "minVersion": "0.8",
  "package": "uk.co.cablepost.conveyorbelts.mixin",
  "compatibilityLevel": "JAVA_16",
  "mixins": [
  ],
  "client": [
  ],
  "injectors": {
    "defaultRequire": 1
  }
}
