{
    "type": "minecraft:crafting_shaped",
    "pattern": [
        "SCS",
        " B ",
        "PPP"
    ],
    "key": {
        "S": {
            "item": "minecraft:gold_nugget"
        },
        "B": {
            "item": "minecraft:gold_ingot"
        },
        "C": {
            "item": "minecraft:copper_ingot"
        },
        "P": {
            "item": "minecraft:light_weighted_pressure_plate"
        }
    },
    "result": {
        "item": "conveyorbelts:gold_robotic_arm",
        "count": 1
    }
}
