{
    "type": "minecraft:crafting_shaped",
    "pattern": [
        "INI",
        "BDB",
        " B "
    ],
    "key": {
        "I": {
            "item": "minecraft:gold_ingot"
        },
        "N": {
            "item": "minecraft:note_block"
        },
        "B": {
            "item": "conveyorbelts:gold_conveyor_belt"
        },
        "D": {
            "item": "minecraft:diamond"
        }
    },
    "result": {
        "item": "conveyorbelts:gold_filter_conveyor_belt",
        "count": 2
    }
}
