{
    "type": "minecraft:crafting_shaped",
    "pattern": [
        "NLN",
        "I I"
    ],
    "key": {
        "N": {
            "item": "minecraft:iron_nugget"
        },
        "L": {
            "item": "minecraft:dried_kelp"
        },
        "I": {
            "item": "minecraft:iron_ingot"
        }
    },
    "result": {
        "item": "conveyorbelts:iron_conveyor_belt",
        "count": 16
    }
}
