{
    "type": "minecraft:crafting_shaped",
    "pattern": [
        "B"
    ],
    "key": {
        "B": {
            "item": "conveyorbelts:wood_sloped_conveyor_belt_up"
        }
    },
    "result": {
        "item": "conveyorbelts:wood_sloped_conveyor_belt_down",
        "count": 1
    }
}
