{
  "variants": {
    "enabled=true,facing=north": {
      "model": "conveyorbelts:block/gold_sloped_conveyor_belt_down",
      "y": 90
    },
    "enabled=true,facing=east": {
      "model": "conveyorbelts:block/gold_sloped_conveyor_belt_down",
      "y":  180
    },
    "enabled=true,facing=south": {
      "model": "conveyorbelts:block/gold_sloped_conveyor_belt_down",
      "y":  270
    },
    "enabled=true,facing=west": {
      "model": "conveyorbelts:block/gold_sloped_conveyor_belt_down",
      "y":  0
    },
    "enabled=false,facing=north": {
      "model": "conveyorbelts:block/gold_sloped_conveyor_belt_down_off",
      "y": 90
    },
    "enabled=false,facing=east": {
      "model": "conveyorbelts:block/gold_sloped_conveyor_belt_down_off",
      "y":  180
    },
    "enabled=false,facing=south": {
      "model": "conveyorbelts:block/gold_sloped_conveyor_belt_down_off",
      "y":  270
    },
    "enabled=false,facing=west": {
      "model": "conveyorbelts:block/gold_sloped_conveyor_belt_down_off",
      "y":  0
    }
  }
}
