{
	"credit": "Made with Blockbench",
	"parent": "block/block",
	"textures": {
		"top": "conveyorbelts:block/gold_conveyor_belt_top",
		"side": "conveyorbelts:block/gold_conveyor_belt_side",
		"bottom": "conveyorbelts:block/gold_conveyor_belt_bottom",
		"particle": "conveyorbelts:block/gold_conveyor_belt_top_off"
	},
	"elements": [
		{
			"name": "bottom",
			"from": [0, 0, 0],
			"to": [1, 1, 16],
			"faces": {
				"north": {"uv": [15, 0, 16, 1], "rotation": 90, "texture": "#side"},
				"east": {"uv": [0, 0, 1, 4], "rotation": 270, "texture": "#side"},
				"south": {"uv": [15, 0, 16, 1], "rotation": 90, "texture": "#side"},
				"west": {"uv": [0, 0, 1, 4], "rotation": 90, "texture": "#side"},
				"down": {"uv": [0, 0, 1, 16], "texture": "#bottom"}
			}
		},
		{
			"name": "top",
			"from": [0, 1, 0],
			"to": [1, 6, 16],
			"faces": {
				"north": {"uv": [10, 0, 15, 1], "rotation": 90, "texture": "#side"},
				"east": {"uv": [0, 0, 5, 16], "rotation": 90, "texture": "#top"},
				"south": {"uv": [10, 15, 15, 16], "rotation": 90, "texture": "#side"},
				"west": {"uv": [11, 0, 16, 16], "rotation": 270, "texture": "#top"},
				"up": {"uv": [0, 0, 1, 16], "texture": "#top"}
			}
		},
		{
			"name": "bottom",
			"from": [1, 1, 0],
			"to": [2, 2, 16],
			"faces": {
				"north": {"uv": [15, 0, 16, 1], "rotation": 90, "texture": "#side"},
				"east": {"uv": [0, 0, 1, 4], "rotation": 270, "texture": "#side"},
				"south": {"uv": [15, 0, 16, 1], "rotation": 90, "texture": "#side"},
				"west": {"uv": [0, 0, 1, 4], "rotation": 90, "texture": "#side"},
				"down": {"uv": [0, 0, 1, 16], "texture": "#bottom"}
			}
		},
		{
			"name": "top",
			"from": [1, 2, 0],
			"to": [2, 7, 16],
			"faces": {
				"north": {"uv": [10, 0, 15, 1], "rotation": 90, "texture": "#side"},
				"east": {"uv": [0, 0, 5, 16], "rotation": 90, "texture": "#top"},
				"south": {"uv": [10, 15, 15, 16], "rotation": 90, "texture": "#side"},
				"west": {"uv": [5, 0, 10, 16], "rotation": 270, "texture": "#top"},
				"up": {"uv": [2, 0, 3, 16], "texture": "#top"}
			}
		},
		{
			"name": "bottom",
			"from": [2, 2, 0],
			"to": [3, 3, 16],
			"faces": {
				"north": {"uv": [15, 0, 16, 1], "rotation": 90, "texture": "#side"},
				"east": {"uv": [0, 0, 1, 4], "rotation": 270, "texture": "#side"},
				"south": {"uv": [15, 0, 16, 1], "rotation": 90, "texture": "#side"},
				"west": {"uv": [0, 0, 1, 4], "rotation": 90, "texture": "#side"},
				"down": {"uv": [0, 0, 1, 16], "texture": "#bottom"}
			}
		},
		{
			"name": "top",
			"from": [2, 3, 0],
			"to": [3, 8, 16],
			"faces": {
				"north": {"uv": [10, 0, 15, 1], "rotation": 90, "texture": "#side"},
				"east": {"uv": [0, 0, 5, 16], "rotation": 90, "texture": "#top"},
				"south": {"uv": [10, 15, 15, 16], "rotation": 90, "texture": "#side"},
				"west": {"uv": [7, 0, 12, 16], "rotation": 270, "texture": "#top"},
				"up": {"uv": [12, 0, 13, 16], "texture": "#top"}
			}
		},
		{
			"name": "bottom",
			"from": [3, 3, 0],
			"to": [4, 4, 16],
			"faces": {
				"north": {"uv": [15, 0, 16, 1], "rotation": 90, "texture": "#side"},
				"east": {"uv": [0, 0, 1, 4], "rotation": 270, "texture": "#side"},
				"south": {"uv": [15, 0, 16, 1], "rotation": 90, "texture": "#side"},
				"west": {"uv": [0, 0, 1, 4], "rotation": 90, "texture": "#side"},
				"down": {"uv": [0, 0, 1, 16], "texture": "#bottom"}
			}
		},
		{
			"name": "top",
			"from": [3, 4, 0],
			"to": [4, 9, 16],
			"faces": {
				"north": {"uv": [10, 0, 15, 1], "rotation": 90, "texture": "#side"},
				"east": {"uv": [0, 0, 5, 16], "rotation": 90, "texture": "#top"},
				"south": {"uv": [10, 15, 15, 16], "rotation": 90, "texture": "#side"},
				"west": {"uv": [9, 0, 14, 16], "rotation": 270, "texture": "#top"},
				"up": {"uv": [6, 0, 7, 16], "texture": "#top"}
			}
		},
		{
			"name": "bottom",
			"from": [4, 4, 0],
			"to": [5, 5, 16],
			"faces": {
				"north": {"uv": [15, 0, 16, 1], "rotation": 90, "texture": "#side"},
				"east": {"uv": [0, 0, 1, 4], "rotation": 270, "texture": "#side"},
				"south": {"uv": [15, 0, 16, 1], "rotation": 90, "texture": "#side"},
				"west": {"uv": [0, 0, 1, 4], "rotation": 90, "texture": "#side"},
				"down": {"uv": [0, 0, 1, 16], "texture": "#bottom"}
			}
		},
		{
			"name": "top",
			"from": [4, 5, 0],
			"to": [5, 10, 16],
			"faces": {
				"north": {"uv": [10, 0, 15, 1], "rotation": 90, "texture": "#side"},
				"east": {"uv": [0, 0, 5, 16], "rotation": 90, "texture": "#top"},
				"south": {"uv": [10, 15, 15, 16], "rotation": 90, "texture": "#side"},
				"west": {"uv": [3, 0, 8, 16], "rotation": 270, "texture": "#top"},
				"up": {"uv": [8, 0, 9, 16], "texture": "#top"}
			}
		},
		{
			"name": "bottom",
			"from": [5, 5, 0],
			"to": [6, 6, 16],
			"faces": {
				"north": {"uv": [15, 0, 16, 1], "rotation": 90, "texture": "#side"},
				"east": {"uv": [0, 0, 1, 4], "rotation": 270, "texture": "#side"},
				"south": {"uv": [15, 0, 16, 1], "rotation": 90, "texture": "#side"},
				"west": {"uv": [0, 0, 1, 4], "rotation": 90, "texture": "#side"},
				"down": {"uv": [0, 0, 1, 16], "texture": "#bottom"}
			}
		},
		{
			"name": "top",
			"from": [5, 6, 0],
			"to": [6, 11, 16],
			"faces": {
				"north": {"uv": [10, 0, 15, 1], "rotation": 90, "texture": "#side"},
				"east": {"uv": [0, 0, 5, 16], "rotation": 90, "texture": "#top"},
				"south": {"uv": [10, 15, 15, 16], "rotation": 90, "texture": "#side"},
				"west": {"uv": [5, 0, 10, 16], "rotation": 270, "texture": "#top"},
				"up": {"uv": [10, 0, 11, 16], "texture": "#top"}
			}
		},
		{
			"name": "bottom",
			"from": [6, 6, 0],
			"to": [7, 7, 16],
			"faces": {
				"north": {"uv": [15, 0, 16, 1], "rotation": 90, "texture": "#side"},
				"east": {"uv": [0, 0, 1, 4], "rotation": 270, "texture": "#side"},
				"south": {"uv": [15, 0, 16, 1], "rotation": 90, "texture": "#side"},
				"west": {"uv": [0, 0, 1, 4], "rotation": 90, "texture": "#side"},
				"down": {"uv": [0, 0, 1, 16], "texture": "#bottom"}
			}
		},
		{
			"name": "top",
			"from": [6, 7, 0],
			"to": [7, 12, 16],
			"faces": {
				"north": {"uv": [10, 0, 15, 1], "rotation": 90, "texture": "#side"},
				"east": {"uv": [0, 0, 5, 16], "rotation": 90, "texture": "#top"},
				"south": {"uv": [10, 15, 15, 16], "rotation": 90, "texture": "#side"},
				"west": {"uv": [7, 0, 12, 16], "rotation": 270, "texture": "#top"},
				"up": {"uv": [12, 0, 13, 16], "texture": "#top"}
			}
		},
		{
			"name": "bottom",
			"from": [7, 7, 0],
			"to": [8, 8, 16],
			"faces": {
				"north": {"uv": [15, 0, 16, 1], "rotation": 90, "texture": "#side"},
				"east": {"uv": [0, 0, 1, 4], "rotation": 270, "texture": "#side"},
				"south": {"uv": [15, 0, 16, 1], "rotation": 90, "texture": "#side"},
				"west": {"uv": [0, 0, 1, 4], "rotation": 90, "texture": "#side"},
				"down": {"uv": [0, 0, 1, 16], "texture": "#bottom"}
			}
		},
		{
			"name": "top",
			"from": [7, 8, 0],
			"to": [8, 13, 16],
			"faces": {
				"north": {"uv": [10, 0, 15, 1], "rotation": 90, "texture": "#side"},
				"east": {"uv": [0, 0, 5, 16], "rotation": 90, "texture": "#top"},
				"south": {"uv": [10, 15, 15, 16], "rotation": 90, "texture": "#side"},
				"west": {"uv": [9, 0, 14, 16], "rotation": 270, "texture": "#top"},
				"up": {"uv": [14, 0, 15, 16], "texture": "#top"}
			}
		},
		{
			"name": "bottom",
			"from": [8, 8, 0],
			"to": [9, 9, 16],
			"faces": {
				"north": {"uv": [15, 0, 16, 1], "rotation": 90, "texture": "#side"},
				"east": {"uv": [0, 0, 1, 4], "rotation": 270, "texture": "#side"},
				"south": {"uv": [15, 0, 16, 1], "rotation": 90, "texture": "#side"},
				"west": {"uv": [0, 0, 1, 4], "rotation": 90, "texture": "#side"},
				"down": {"uv": [0, 0, 1, 16], "texture": "#bottom"}
			}
		},
		{
			"name": "top",
			"from": [8, 9, 0],
			"to": [9, 14, 16],
			"faces": {
				"north": {"uv": [10, 0, 15, 1], "rotation": 90, "texture": "#side"},
				"east": {"uv": [0, 0, 5, 16], "rotation": 90, "texture": "#top"},
				"south": {"uv": [10, 15, 15, 16], "rotation": 90, "texture": "#side"},
				"west": {"uv": [11, 0, 16, 16], "rotation": 270, "texture": "#top"},
				"up": {"uv": [0, 0, 1, 16], "texture": "#top"}
			}
		},
		{
			"name": "bottom",
			"from": [9, 9, 0],
			"to": [10, 10, 16],
			"faces": {
				"north": {"uv": [15, 0, 16, 1], "rotation": 90, "texture": "#side"},
				"east": {"uv": [0, 0, 1, 4], "rotation": 270, "texture": "#side"},
				"south": {"uv": [15, 0, 16, 1], "rotation": 90, "texture": "#side"},
				"west": {"uv": [0, 0, 1, 4], "rotation": 90, "texture": "#side"},
				"down": {"uv": [0, 0, 1, 16], "texture": "#bottom"}
			}
		},
		{
			"name": "top",
			"from": [9, 10, 0],
			"to": [10, 15, 16],
			"faces": {
				"north": {"uv": [10, 0, 15, 1], "rotation": 90, "texture": "#side"},
				"east": {"uv": [0, 0, 5, 16], "rotation": 90, "texture": "#top"},
				"south": {"uv": [10, 15, 15, 16], "rotation": 90, "texture": "#side"},
				"west": {"uv": [5, 0, 10, 16], "rotation": 270, "texture": "#top"},
				"up": {"uv": [10, 0, 11, 16], "texture": "#top"}
			}
		},
		{
			"name": "bottom",
			"from": [10, 10, 0],
			"to": [11, 11, 16],
			"faces": {
				"north": {"uv": [15, 0, 16, 1], "rotation": 90, "texture": "#side"},
				"east": {"uv": [0, 0, 1, 4], "rotation": 270, "texture": "#side"},
				"south": {"uv": [15, 0, 16, 1], "rotation": 90, "texture": "#side"},
				"west": {"uv": [0, 0, 1, 4], "rotation": 90, "texture": "#side"},
				"down": {"uv": [0, 0, 1, 16], "texture": "#bottom"}
			}
		},
		{
			"name": "top",
			"from": [10, 11, 0],
			"to": [11, 16, 16],
			"faces": {
				"north": {"uv": [10, 0, 15, 1], "rotation": 90, "texture": "#side"},
				"east": {"uv": [0, 0, 5, 16], "rotation": 90, "texture": "#top"},
				"south": {"uv": [10, 15, 15, 16], "rotation": 90, "texture": "#side"},
				"west": {"uv": [7, 0, 12, 16], "rotation": 270, "texture": "#top"},
				"up": {"uv": [12, 0, 13, 16], "texture": "#top"}
			}
		},
		{
			"name": "bottom",
			"from": [11, 11, 0],
			"to": [12, 12, 16],
			"faces": {
				"north": {"uv": [15, 0, 16, 1], "rotation": 90, "texture": "#side"},
				"east": {"uv": [0, 0, 1, 4], "rotation": 270, "texture": "#side"},
				"south": {"uv": [15, 0, 16, 1], "rotation": 90, "texture": "#side"},
				"west": {"uv": [0, 0, 1, 4], "rotation": 90, "texture": "#side"},
				"down": {"uv": [0, 0, 1, 16], "texture": "#bottom"}
			}
		},
		{
			"name": "top",
			"from": [11, 12, 0],
			"to": [12, 17, 16],
			"faces": {
				"north": {"uv": [10, 0, 15, 1], "rotation": 90, "texture": "#side"},
				"east": {"uv": [0, 0, 5, 16], "rotation": 90, "texture": "#top"},
				"south": {"uv": [10, 15, 15, 16], "rotation": 90, "texture": "#side"},
				"west": {"uv": [9, 0, 14, 16], "rotation": 270, "texture": "#top"},
				"up": {"uv": [14, 0, 15, 16], "texture": "#top"}
			}
		},
		{
			"name": "bottom",
			"from": [12, 12, 0],
			"to": [13, 13, 16],
			"faces": {
				"north": {"uv": [15, 0, 16, 1], "rotation": 90, "texture": "#side"},
				"east": {"uv": [0, 0, 1, 4], "rotation": 270, "texture": "#side"},
				"south": {"uv": [15, 0, 16, 1], "rotation": 90, "texture": "#side"},
				"west": {"uv": [0, 0, 1, 4], "rotation": 90, "texture": "#side"},
				"down": {"uv": [0, 0, 1, 16], "texture": "#bottom"}
			}
		},
		{
			"name": "top",
			"from": [12, 13, 0],
			"to": [13, 18, 16],
			"faces": {
				"north": {"uv": [10, 0, 15, 1], "rotation": 90, "texture": "#side"},
				"east": {"uv": [0, 0, 5, 16], "rotation": 90, "texture": "#top"},
				"south": {"uv": [10, 15, 15, 16], "rotation": 90, "texture": "#side"},
				"west": {"uv": [11, 0, 16, 16], "rotation": 270, "texture": "#top"},
				"up": {"uv": [0, 0, 1, 16], "texture": "#top"}
			}
		},
		{
			"name": "bottom",
			"from": [13, 13, 0],
			"to": [14, 14, 16],
			"faces": {
				"north": {"uv": [15, 0, 16, 1], "rotation": 90, "texture": "#side"},
				"east": {"uv": [0, 0, 1, 4], "rotation": 270, "texture": "#side"},
				"south": {"uv": [15, 0, 16, 1], "rotation": 90, "texture": "#side"},
				"west": {"uv": [0, 0, 1, 4], "rotation": 90, "texture": "#side"},
				"down": {"uv": [0, 0, 1, 16], "texture": "#bottom"}
			}
		},
		{
			"name": "top",
			"from": [13, 14, 0],
			"to": [14, 19, 16],
			"faces": {
				"north": {"uv": [10, 0, 15, 1], "rotation": 90, "texture": "#side"},
				"east": {"uv": [0, 0, 5, 16], "rotation": 90, "texture": "#top"},
				"south": {"uv": [10, 15, 15, 16], "rotation": 90, "texture": "#side"},
				"west": {"uv": [5, 0, 10, 16], "rotation": 270, "texture": "#top"},
				"up": {"uv": [10, 0, 11, 16], "texture": "#top"}
			}
		},
		{
			"name": "bottom",
			"from": [14, 14, 0],
			"to": [15, 15, 16],
			"faces": {
				"north": {"uv": [15, 0, 16, 1], "rotation": 90, "texture": "#side"},
				"east": {"uv": [0, 0, 1, 4], "rotation": 270, "texture": "#side"},
				"south": {"uv": [15, 0, 16, 1], "rotation": 90, "texture": "#side"},
				"west": {"uv": [0, 0, 1, 4], "rotation": 90, "texture": "#side"},
				"down": {"uv": [0, 0, 1, 16], "texture": "#bottom"}
			}
		},
		{
			"name": "top",
			"from": [14, 15, 0],
			"to": [15, 20, 16],
			"faces": {
				"north": {"uv": [10, 0, 15, 1], "rotation": 90, "texture": "#side"},
				"east": {"uv": [0, 0, 5, 16], "rotation": 90, "texture": "#top"},
				"south": {"uv": [10, 15, 15, 16], "rotation": 90, "texture": "#side"},
				"west": {"uv": [7, 0, 12, 16], "rotation": 270, "texture": "#top"},
				"up": {"uv": [12, 0, 13, 16], "texture": "#top"}
			}
		},
		{
			"name": "bottom",
			"from": [15, 15, 0],
			"to": [16, 16, 16],
			"faces": {
				"north": {"uv": [15, 0, 16, 1], "rotation": 90, "texture": "#side"},
				"east": {"uv": [0, 0, 1, 4], "rotation": 270, "texture": "#side"},
				"south": {"uv": [15, 0, 16, 1], "rotation": 90, "texture": "#side"},
				"west": {"uv": [0, 0, 1, 4], "rotation": 90, "texture": "#side"},
				"down": {"uv": [0, 0, 1, 16], "texture": "#bottom"}
			}
		},
		{
			"name": "top",
			"from": [15, 16, 0],
			"to": [16, 21, 16],
			"faces": {
				"north": {"uv": [10, 0, 15, 1], "rotation": 90, "texture": "#side"},
				"east": {"uv": [0, 0, 5, 16], "rotation": 90, "texture": "#top"},
				"south": {"uv": [10, 15, 15, 16], "rotation": 90, "texture": "#side"},
				"west": {"uv": [9, 0, 14, 16], "rotation": 270, "texture": "#top"},
				"up": {"uv": [14, 0, 15, 16], "texture": "#top"}
			}
		}
	],
	"display": {},
	"groups": [
		{
			"name": "group",
			"origin": [0, 0, 0],
			"color": 0,
			"children": [
				{
					"name": "group",
					"origin": [0, 0, 0],
					"color": 0,
					"children": [0, 1]
				},
				{
					"name": "group",
					"origin": [0, 0, 0],
					"color": 0,
					"children": [2, 3]
				},
				{
					"name": "group",
					"origin": [0, 0, 0],
					"color": 0,
					"children": [4, 5]
				},
				{
					"name": "group",
					"origin": [0, 0, 0],
					"color": 0,
					"children": [6, 7]
				},
				{
					"name": "group",
					"origin": [0, 0, 0],
					"color": 0,
					"children": [8, 9]
				},
				{
					"name": "group",
					"origin": [0, 0, 0],
					"color": 0,
					"children": [10, 11]
				},
				{
					"name": "group",
					"origin": [0, 0, 0],
					"color": 0,
					"children": [12, 13]
				},
				{
					"name": "group",
					"origin": [0, 0, 0],
					"color": 0,
					"children": [14, 15]
				},
				{
					"name": "group",
					"origin": [0, 0, 0],
					"color": 0,
					"children": [16, 17]
				},
				{
					"name": "group",
					"origin": [0, 0, 0],
					"color": 0,
					"children": [18, 19]
				},
				{
					"name": "group",
					"origin": [0, 0, 0],
					"color": 0,
					"children": [20, 21]
				},
				{
					"name": "group",
					"origin": [0, 0, 0],
					"color": 0,
					"children": [22, 23]
				},
				{
					"name": "group",
					"origin": [0, 0, 0],
					"color": 0,
					"children": [24, 25]
				},
				{
					"name": "group",
					"origin": [0, 0, 0],
					"color": 0,
					"children": [26, 27]
				},
				{
					"name": "group",
					"origin": [0, 0, 0],
					"color": 0,
					"children": [28, 29]
				},
				{
					"name": "group",
					"origin": [0, 0, 0],
					"color": 0,
					"children": [30, 31]
				}
			]
		}
	]
}
