{
	"credit": "Made with Blockbench",
	"parent": "block/block",
	"textures": {
		"top": "conveyorbelts:block/wood_conveyor_belt_top_off",
		"side": "conveyorbelts:block/wood_conveyor_belt_side",
		"bottom": "conveyorbelts:block/wood_conveyor_belt_bottom",
		"particle": "conveyorbelts:block/wood_conveyor_belt_top_off"
	},
	"elements": [
		{
			"name": "bottom",
			"from": [0, 15, 0],
			"to": [1, 16, 16],
			"faces": {
				"north": {"uv": [15, 0, 16, 1], "rotation": 90, "texture": "#side"},
				"east": {"uv": [1, 0, 2, 4], "rotation": 270, "texture": "#side"},
				"south": {"uv": [15, 0, 16, 1], "rotation": 90, "texture": "#side"},
				"west": {"uv": [0, 0, 1, 4], "rotation": 90, "texture": "#side"},
				"down": {"uv": [0, 0, 1, 16], "texture": "#bottom"}
			}
		},
		{
			"from": [0, 16, 0],
			"to": [1, 21, 16],
			"faces": {
				"north": {"uv": [10, 0, 15, 1], "rotation": 90, "texture": "#side"},
				"east": {"uv": [4, 0, 9, 16], "rotation": 90, "texture": "#top"},
				"south": {"uv": [10, 15, 15, 16], "rotation": 90, "texture": "#side"},
				"west": {"uv": [6, 0, 11, 16], "rotation": 270, "texture": "#top"},
				"up": {"uv": [3, 0, 4, 16], "texture": "#top"},
				"down": {"uv": [0, 0, 1, 16], "texture": "#top"}
			}
		},
		{
			"name": "bottom",
			"from": [1, 14, 0],
			"to": [2, 15, 16],
			"faces": {
				"north": {"uv": [15, 0, 16, 1], "rotation": 90, "texture": "#side"},
				"east": {"uv": [1, 0, 2, 4], "rotation": 270, "texture": "#side"},
				"south": {"uv": [15, 0, 16, 1], "rotation": 90, "texture": "#side"},
				"west": {"uv": [0, 0, 1, 4], "rotation": 90, "texture": "#side"},
				"down": {"uv": [0, 0, 1, 16], "texture": "#bottom"}
			}
		},
		{
			"from": [1, 15, 0],
			"to": [2, 20, 16],
			"faces": {
				"north": {"uv": [10, 0, 15, 1], "rotation": 90, "texture": "#side"},
				"east": {"uv": [7, 0, 12, 16], "rotation": 90, "texture": "#top"},
				"south": {"uv": [10, 15, 15, 16], "rotation": 90, "texture": "#side"},
				"west": {"uv": [6, 0, 11, 16], "rotation": 270, "texture": "#top"},
				"up": {"uv": [6, 0, 7, 16], "texture": "#top"},
				"down": {"uv": [0, 0, 1, 16], "texture": "#top"}
			}
		},
		{
			"name": "bottom",
			"from": [2, 13, 0],
			"to": [3, 14, 16],
			"faces": {
				"north": {"uv": [15, 0, 16, 1], "rotation": 90, "texture": "#side"},
				"east": {"uv": [1, 0, 2, 4], "rotation": 270, "texture": "#side"},
				"south": {"uv": [15, 0, 16, 1], "rotation": 90, "texture": "#side"},
				"west": {"uv": [0, 0, 1, 4], "rotation": 90, "texture": "#side"},
				"down": {"uv": [0, 0, 1, 16], "texture": "#bottom"}
			}
		},
		{
			"from": [2, 14, 0],
			"to": [3, 19, 16],
			"faces": {
				"north": {"uv": [10, 0, 15, 1], "rotation": 90, "texture": "#side"},
				"east": {"uv": [9, 0, 14, 16], "rotation": 90, "texture": "#top"},
				"south": {"uv": [10, 15, 15, 16], "rotation": 90, "texture": "#side"},
				"west": {"uv": [6, 0, 11, 16], "rotation": 270, "texture": "#top"},
				"up": {"uv": [8, 0, 9, 16], "texture": "#top"},
				"down": {"uv": [0, 0, 1, 16], "texture": "#top"}
			}
		},
		{
			"name": "bottom",
			"from": [3, 12, 0],
			"to": [4, 13, 16],
			"faces": {
				"north": {"uv": [15, 0, 16, 1], "rotation": 90, "texture": "#side"},
				"east": {"uv": [1, 0, 2, 4], "rotation": 270, "texture": "#side"},
				"south": {"uv": [15, 0, 16, 1], "rotation": 90, "texture": "#side"},
				"west": {"uv": [0, 0, 1, 4], "rotation": 90, "texture": "#side"},
				"down": {"uv": [0, 0, 1, 16], "texture": "#bottom"}
			}
		},
		{
			"from": [3, 13, 0],
			"to": [4, 18, 16],
			"faces": {
				"north": {"uv": [10, 0, 15, 1], "rotation": 90, "texture": "#side"},
				"east": {"uv": [11, 0, 16, 16], "rotation": 90, "texture": "#top"},
				"south": {"uv": [10, 15, 15, 16], "rotation": 90, "texture": "#side"},
				"west": {"uv": [6, 0, 11, 16], "rotation": 270, "texture": "#top"},
				"up": {"uv": [10, 0, 11, 16], "texture": "#top"},
				"down": {"uv": [0, 0, 1, 16], "texture": "#top"}
			}
		},
		{
			"name": "bottom",
			"from": [4, 11, 0],
			"to": [5, 12, 16],
			"faces": {
				"north": {"uv": [15, 0, 16, 1], "rotation": 90, "texture": "#side"},
				"east": {"uv": [1, 0, 2, 4], "rotation": 270, "texture": "#side"},
				"south": {"uv": [15, 0, 16, 1], "rotation": 90, "texture": "#side"},
				"west": {"uv": [0, 0, 1, 4], "rotation": 90, "texture": "#side"},
				"down": {"uv": [0, 0, 1, 16], "texture": "#bottom"}
			}
		},
		{
			"from": [4, 12, 0],
			"to": [5, 17, 16],
			"faces": {
				"north": {"uv": [10, 0, 15, 1], "rotation": 90, "texture": "#side"},
				"east": {"uv": [5, 0, 10, 16], "rotation": 90, "texture": "#top"},
				"south": {"uv": [10, 15, 15, 16], "rotation": 90, "texture": "#side"},
				"west": {"uv": [6, 0, 11, 16], "rotation": 270, "texture": "#top"},
				"up": {"uv": [4, 0, 5, 16], "texture": "#top"},
				"down": {"uv": [0, 0, 1, 16], "texture": "#top"}
			}
		},
		{
			"name": "bottom",
			"from": [5, 10, 0],
			"to": [6, 11, 16],
			"faces": {
				"north": {"uv": [15, 0, 16, 1], "rotation": 90, "texture": "#side"},
				"east": {"uv": [1, 0, 2, 4], "rotation": 270, "texture": "#side"},
				"south": {"uv": [15, 0, 16, 1], "rotation": 90, "texture": "#side"},
				"west": {"uv": [0, 0, 1, 4], "rotation": 90, "texture": "#side"},
				"down": {"uv": [0, 0, 1, 16], "texture": "#bottom"}
			}
		},
		{
			"from": [5, 11, 0],
			"to": [6, 16, 16],
			"faces": {
				"north": {"uv": [10, 0, 15, 1], "rotation": 90, "texture": "#side"},
				"east": {"uv": [7, 0, 12, 16], "rotation": 90, "texture": "#top"},
				"south": {"uv": [10, 15, 15, 16], "rotation": 90, "texture": "#side"},
				"west": {"uv": [6, 0, 11, 16], "rotation": 270, "texture": "#top"},
				"up": {"uv": [6, 0, 7, 16], "texture": "#top"},
				"down": {"uv": [0, 0, 1, 16], "texture": "#top"}
			}
		},
		{
			"name": "bottom",
			"from": [6, 9, 0],
			"to": [7, 10, 16],
			"faces": {
				"north": {"uv": [15, 0, 16, 1], "rotation": 90, "texture": "#side"},
				"east": {"uv": [1, 0, 2, 4], "rotation": 270, "texture": "#side"},
				"south": {"uv": [15, 0, 16, 1], "rotation": 90, "texture": "#side"},
				"west": {"uv": [0, 0, 1, 4], "rotation": 90, "texture": "#side"},
				"down": {"uv": [0, 0, 1, 16], "texture": "#bottom"}
			}
		},
		{
			"from": [6, 10, 0],
			"to": [7, 15, 16],
			"faces": {
				"north": {"uv": [10, 0, 15, 1], "rotation": 90, "texture": "#side"},
				"east": {"uv": [9, 0, 14, 16], "rotation": 90, "texture": "#top"},
				"south": {"uv": [10, 15, 15, 16], "rotation": 90, "texture": "#side"},
				"west": {"uv": [6, 0, 11, 16], "rotation": 270, "texture": "#top"},
				"up": {"uv": [8, 0, 9, 16], "texture": "#top"},
				"down": {"uv": [0, 0, 1, 16], "texture": "#top"}
			}
		},
		{
			"name": "bottom",
			"from": [7, 8, 0],
			"to": [8, 9, 16],
			"faces": {
				"north": {"uv": [15, 0, 16, 1], "rotation": 90, "texture": "#side"},
				"east": {"uv": [1, 0, 2, 4], "rotation": 270, "texture": "#side"},
				"south": {"uv": [15, 0, 16, 1], "rotation": 90, "texture": "#side"},
				"west": {"uv": [0, 0, 1, 4], "rotation": 90, "texture": "#side"},
				"down": {"uv": [0, 0, 1, 16], "texture": "#bottom"}
			}
		},
		{
			"from": [7, 9, 0],
			"to": [8, 14, 16],
			"faces": {
				"north": {"uv": [10, 0, 15, 1], "rotation": 90, "texture": "#side"},
				"east": {"uv": [11, 0, 16, 16], "rotation": 90, "texture": "#top"},
				"south": {"uv": [10, 15, 15, 16], "rotation": 90, "texture": "#side"},
				"west": {"uv": [6, 0, 11, 16], "rotation": 270, "texture": "#top"},
				"up": {"uv": [10, 0, 11, 16], "texture": "#top"},
				"down": {"uv": [0, 0, 1, 16], "texture": "#top"}
			}
		},
		{
			"name": "bottom",
			"from": [8, 7, 0],
			"to": [9, 8, 16],
			"faces": {
				"north": {"uv": [15, 0, 16, 1], "rotation": 90, "texture": "#side"},
				"east": {"uv": [1, 0, 2, 4], "rotation": 270, "texture": "#side"},
				"south": {"uv": [15, 0, 16, 1], "rotation": 90, "texture": "#side"},
				"west": {"uv": [0, 0, 1, 4], "rotation": 90, "texture": "#side"},
				"down": {"uv": [0, 0, 1, 16], "texture": "#bottom"}
			}
		},
		{
			"from": [8, 8, 0],
			"to": [9, 13, 16],
			"faces": {
				"north": {"uv": [10, 0, 15, 1], "rotation": 90, "texture": "#side"},
				"east": {"uv": [5, 0, 10, 16], "rotation": 90, "texture": "#top"},
				"south": {"uv": [10, 15, 15, 16], "rotation": 90, "texture": "#side"},
				"west": {"uv": [6, 0, 11, 16], "rotation": 270, "texture": "#top"},
				"up": {"uv": [4, 0, 5, 16], "texture": "#top"},
				"down": {"uv": [0, 0, 1, 16], "texture": "#top"}
			}
		},
		{
			"name": "bottom",
			"from": [9, 6, 0],
			"to": [10, 7, 16],
			"faces": {
				"north": {"uv": [15, 0, 16, 1], "rotation": 90, "texture": "#side"},
				"east": {"uv": [1, 0, 2, 4], "rotation": 270, "texture": "#side"},
				"south": {"uv": [15, 0, 16, 1], "rotation": 90, "texture": "#side"},
				"west": {"uv": [0, 0, 1, 4], "rotation": 90, "texture": "#side"},
				"down": {"uv": [0, 0, 1, 16], "texture": "#bottom"}
			}
		},
		{
			"from": [9, 7, 0],
			"to": [10, 12, 16],
			"faces": {
				"north": {"uv": [10, 0, 15, 1], "rotation": 90, "texture": "#side"},
				"east": {"uv": [7, 0, 12, 16], "rotation": 90, "texture": "#top"},
				"south": {"uv": [10, 15, 15, 16], "rotation": 90, "texture": "#side"},
				"west": {"uv": [6, 0, 11, 16], "rotation": 270, "texture": "#top"},
				"up": {"uv": [6, 0, 7, 16], "texture": "#top"},
				"down": {"uv": [0, 0, 1, 16], "texture": "#top"}
			}
		},
		{
			"name": "bottom",
			"from": [10, 5, 0],
			"to": [11, 6, 16],
			"faces": {
				"north": {"uv": [15, 0, 16, 1], "rotation": 90, "texture": "#side"},
				"east": {"uv": [1, 0, 2, 4], "rotation": 270, "texture": "#side"},
				"south": {"uv": [15, 0, 16, 1], "rotation": 90, "texture": "#side"},
				"west": {"uv": [0, 0, 1, 4], "rotation": 90, "texture": "#side"},
				"down": {"uv": [0, 0, 1, 16], "texture": "#bottom"}
			}
		},
		{
			"from": [10, 6, 0],
			"to": [11, 11, 16],
			"faces": {
				"north": {"uv": [10, 0, 15, 1], "rotation": 90, "texture": "#side"},
				"east": {"uv": [9, 0, 14, 16], "rotation": 90, "texture": "#top"},
				"south": {"uv": [10, 15, 15, 16], "rotation": 90, "texture": "#side"},
				"west": {"uv": [6, 0, 11, 16], "rotation": 270, "texture": "#top"},
				"up": {"uv": [8, 0, 9, 16], "texture": "#top"},
				"down": {"uv": [0, 0, 1, 16], "texture": "#top"}
			}
		},
		{
			"name": "bottom",
			"from": [11, 4, 0],
			"to": [12, 5, 16],
			"faces": {
				"north": {"uv": [15, 0, 16, 1], "rotation": 90, "texture": "#side"},
				"east": {"uv": [1, 0, 2, 4], "rotation": 270, "texture": "#side"},
				"south": {"uv": [15, 0, 16, 1], "rotation": 90, "texture": "#side"},
				"west": {"uv": [0, 0, 1, 4], "rotation": 90, "texture": "#side"},
				"down": {"uv": [0, 0, 1, 16], "texture": "#bottom"}
			}
		},
		{
			"from": [11, 5, 0],
			"to": [12, 10, 16],
			"faces": {
				"north": {"uv": [10, 0, 15, 1], "rotation": 90, "texture": "#side"},
				"east": {"uv": [11, 0, 16, 16], "rotation": 90, "texture": "#top"},
				"south": {"uv": [10, 15, 15, 16], "rotation": 90, "texture": "#side"},
				"west": {"uv": [6, 0, 11, 16], "rotation": 270, "texture": "#top"},
				"up": {"uv": [10, 0, 11, 16], "texture": "#top"},
				"down": {"uv": [0, 0, 1, 16], "texture": "#top"}
			}
		},
		{
			"name": "bottom",
			"from": [12, 3, 0],
			"to": [13, 4, 16],
			"faces": {
				"north": {"uv": [15, 0, 16, 1], "rotation": 90, "texture": "#side"},
				"east": {"uv": [1, 0, 2, 4], "rotation": 270, "texture": "#side"},
				"south": {"uv": [15, 0, 16, 1], "rotation": 90, "texture": "#side"},
				"west": {"uv": [0, 0, 1, 4], "rotation": 90, "texture": "#side"},
				"down": {"uv": [0, 0, 1, 16], "texture": "#bottom"}
			}
		},
		{
			"from": [12, 4, 0],
			"to": [13, 9, 16],
			"faces": {
				"north": {"uv": [10, 0, 15, 1], "rotation": 90, "texture": "#side"},
				"east": {"uv": [5, 0, 10, 16], "rotation": 90, "texture": "#top"},
				"south": {"uv": [10, 15, 15, 16], "rotation": 90, "texture": "#side"},
				"west": {"uv": [6, 0, 11, 16], "rotation": 270, "texture": "#top"},
				"up": {"uv": [4, 0, 5, 16], "texture": "#top"},
				"down": {"uv": [0, 0, 1, 16], "texture": "#top"}
			}
		},
		{
			"name": "bottom",
			"from": [13, 2, 0],
			"to": [14, 3, 16],
			"faces": {
				"north": {"uv": [15, 0, 16, 1], "rotation": 90, "texture": "#side"},
				"east": {"uv": [1, 0, 2, 4], "rotation": 270, "texture": "#side"},
				"south": {"uv": [15, 0, 16, 1], "rotation": 90, "texture": "#side"},
				"west": {"uv": [0, 0, 1, 4], "rotation": 90, "texture": "#side"},
				"down": {"uv": [0, 0, 1, 16], "texture": "#bottom"}
			}
		},
		{
			"from": [13, 3, 0],
			"to": [14, 8, 16],
			"faces": {
				"north": {"uv": [10, 0, 15, 1], "rotation": 90, "texture": "#side"},
				"east": {"uv": [7, 0, 12, 16], "rotation": 90, "texture": "#top"},
				"south": {"uv": [10, 15, 15, 16], "rotation": 90, "texture": "#side"},
				"west": {"uv": [6, 0, 11, 16], "rotation": 270, "texture": "#top"},
				"up": {"uv": [6, 0, 7, 16], "texture": "#top"},
				"down": {"uv": [0, 0, 1, 16], "texture": "#top"}
			}
		},
		{
			"name": "bottom",
			"from": [14, 1, 0],
			"to": [15, 2, 16],
			"faces": {
				"north": {"uv": [15, 0, 16, 1], "rotation": 90, "texture": "#side"},
				"east": {"uv": [1, 0, 2, 4], "rotation": 270, "texture": "#side"},
				"south": {"uv": [15, 0, 16, 1], "rotation": 90, "texture": "#side"},
				"west": {"uv": [0, 0, 1, 4], "rotation": 90, "texture": "#side"},
				"down": {"uv": [0, 0, 1, 16], "texture": "#bottom"}
			}
		},
		{
			"from": [14, 2, 0],
			"to": [15, 7, 16],
			"faces": {
				"north": {"uv": [10, 0, 15, 1], "rotation": 90, "texture": "#side"},
				"east": {"uv": [9, 0, 14, 16], "rotation": 90, "texture": "#top"},
				"south": {"uv": [10, 15, 15, 16], "rotation": 90, "texture": "#side"},
				"west": {"uv": [6, 0, 11, 16], "rotation": 270, "texture": "#top"},
				"up": {"uv": [8, 0, 9, 16], "texture": "#top"},
				"down": {"uv": [0, 0, 1, 16], "texture": "#top"}
			}
		},
		{
			"name": "bottom",
			"from": [15, 0, 0],
			"to": [16, 1, 16],
			"faces": {
				"north": {"uv": [15, 0, 16, 1], "rotation": 90, "texture": "#side"},
				"east": {"uv": [1, 0, 2, 4], "rotation": 270, "texture": "#side"},
				"south": {"uv": [15, 0, 16, 1], "rotation": 90, "texture": "#side"},
				"west": {"uv": [0, 0, 1, 4], "rotation": 90, "texture": "#side"},
				"down": {"uv": [0, 0, 1, 16], "texture": "#bottom"}
			}
		},
		{
			"from": [15, 1, 0],
			"to": [16, 6, 16],
			"faces": {
				"north": {"uv": [10, 0, 15, 1], "rotation": 90, "texture": "#side"},
				"east": {"uv": [11, 0, 16, 16], "rotation": 90, "texture": "#top"},
				"south": {"uv": [10, 15, 15, 16], "rotation": 90, "texture": "#side"},
				"west": {"uv": [6, 0, 11, 16], "rotation": 270, "texture": "#top"},
				"up": {"uv": [10, 0, 11, 16], "texture": "#top"},
				"down": {"uv": [0, 0, 1, 16], "texture": "#top"}
			}
		}
	],
	"groups": [
		{
			"name": "group",
			"origin": [0, 0, 0],
			"color": 0,
			"children": [
				{
					"name": "16",
					"origin": [0, 0, 0],
					"color": 0,
					"children": [0, 1]
				},
				{
					"name": "16",
					"origin": [0, 0, 0],
					"color": 0,
					"children": [2, 3]
				},
				{
					"name": "16",
					"origin": [0, 0, 0],
					"color": 0,
					"children": [4, 5]
				},
				{
					"name": "16",
					"origin": [0, 0, 0],
					"color": 0,
					"children": [6, 7]
				},
				{
					"name": "16",
					"origin": [0, 0, 0],
					"color": 0,
					"children": [8, 9]
				},
				{
					"name": "16",
					"origin": [0, 0, 0],
					"color": 0,
					"children": [10, 11]
				},
				{
					"name": "16",
					"origin": [0, 0, 0],
					"color": 0,
					"children": [12, 13]
				},
				{
					"name": "16",
					"origin": [0, 0, 0],
					"color": 0,
					"children": [14, 15]
				},
				{
					"name": "group",
					"origin": [0, 0, 0],
					"color": 0,
					"children": [
						{
							"name": "16",
							"origin": [0, 0, 0],
							"color": 0,
							"children": [16, 17]
						},
						{
							"name": "16",
							"origin": [0, 0, 0],
							"color": 0,
							"children": [18, 19]
						},
						{
							"name": "16",
							"origin": [0, 0, 0],
							"color": 0,
							"children": [20, 21]
						},
						{
							"name": "16",
							"origin": [0, 0, 0],
							"color": 0,
							"children": [22, 23]
						}
					]
				},
				{
					"name": "group",
					"origin": [0, 0, 0],
					"color": 0,
					"children": [
						{
							"name": "16",
							"origin": [0, 0, 0],
							"color": 0,
							"children": [24, 25]
						},
						{
							"name": "16",
							"origin": [0, 0, 0],
							"color": 0,
							"children": [26, 27]
						},
						{
							"name": "16",
							"origin": [0, 0, 0],
							"color": 0,
							"children": [28, 29]
						},
						{
							"name": "16",
							"origin": [0, 0, 0],
							"color": 0,
							"children": [30, 31]
						}
					]
				}
			]
		}
	]
}
